Jh_eda_file
…
## Warning: 1 parsing failure.
##  row col           expected actual                      file
## 1139 X16 1/0/T/F/TRUE/FALSE    Rev 'abcfm_missionaries1.csv'

abcfm_missionaries

## # A tibble: 1,920 x 16
##    Report_year mission_name mission_station name_last name_first
##          <dbl> <chr>        <chr>            <chr>     <chr>     
##  1        1884 Zulu         Umzumbi          Bridgman  Henry     
##  2        1884 Zulu         Umzumbi          Brigman   Laura     
##  3        1884 Zulu         Untwalumi        Wilder    George    
##  4        1884 Zulu         Umtwalumi        Wilder    Alice     
##  5        1884 Zulu         Umtwalumi        Wilder    Abby      
##  6        1884 Zulu         Adamiss          Ireland   William   
##  7        1884 Zulu         Adamiss          Robbins   Eligah    
##  8        1884 Zulu         Adamiss          Kilbon    Charles   
##  9        1884 Zulu         Adamiss          Goodenou Herbert   
## 10        1884 Zulu         Adamiss          Robbins   Addie     
## #  with 1,910 more rows, and 11 more variables: title_in_report <chr>,
## #   MD <lgl>, DD <lgl>, LLD <lgl>, X10 <lgl>, X11 <lgl>, X12 <chr>,
## #   X13 <lgl>, X14 <chr>, X15 <lgl>, X16 <lgl>
…
abcfm_missionaries %>% 
select(mission_name) %>% 
  unique()

## # A tibble: 22 x 1
##    mission_name       
##    <chr>              
##  1 Zulu               
##  2 West Central Africa
##  3 European Turkey    
##  4 Western Turkey     
##  5 Central Turkey     
##  6 Eastern Turkey     
##  7 Maratha            
##  8 Madura             
##  9 Ceylon             
## 10 Foochow            
## #  with 12 more rows

abcfm_missionaries %>% 
  select(title_in_report) %>% 
  unique()

## # A tibble: 22 x 1
##    title_in_report               
##    <chr>                         
##  1 missionary                    
##  2 mrs                           
##  3 miss                          
##  4 native pastor                 
##  5 n/a                           
##  6 assistant missionary          
##  7 physician                     
##  8 treasurer_and_bulletin_manager
##  9 engaged in greek work         
## 10 teacher                       
## #  with 12 more rows

#There are 20 different mission stations within the ABCFM and various stations within those stations. Five in the file are minorly altered from uniform spellings and will need to be changed.

abcfm_micronesia <-
abcfm_missionaries %>% 
  filter(mission_name == "Micronesia")

abcfm_missionaries_women <- 
  abcfm_missionaries %>% 
  filter(title_in_report == "mrs" | title_in_report == "miss")

abcfm_missionaries_women

## # A tibble: 1,065 x 16
##    Report_year mission_name mission_station name_last name_first
##          <dbl> <chr>        <chr>            <chr>     <chr>     
##  1        1884 Zulu         Umzumbi          Brigman   Laura     
##  2        1884 Zulu         Umtwalumi        Wilder    Alice     
##  3        1884 Zulu         Umtwalumi        Wilder    Abby      
##  4        1884 Zulu         Adamiss          Robbins   Addie     
##  5        1884 Zulu         Adamiss          Kilbon    Mary      
##  6        1884 Zulu         Adamiss          Goodenou Caroline  
##  7        1884 Zulu         Adamiss          Day       Laura     
##  8        1884 Zulu         Inanda           Richards  M.A.      
##  9        1884 Zulu         Inanda           Edwards   Mary      
## 10        1884 Zulu         Inanda           Price     Martha    
## #  with 1,055 more rows, and 11 more variables: title_in_report <chr>,
## #   MD <lgl>, DD <lgl>, LLD <lgl>, X10 <lgl>, X11 <lgl>, X12 <chr>,
## #   X13 <lgl>, X14 <chr>, X15 <lgl>, X16 <lgl>
…
# There were 16 female doctors total and 87 doctors total in the ABCFM. 

# Females comprised 18.4 percent of the ABCFM medical professionals.

abcfm_missionaries_women

## # A tibble: 1,065 x 16
##    Report_year mission_name mission_station name_last name_first
##          <dbl> <chr>        <chr>            <chr>     <chr>     
##  1        1884 Zulu         Umzumbi          Brigman   Laura     
##  2        1884 Zulu         Umtwalumi        Wilder    Alice     
##  3        1884 Zulu         Umtwalumi        Wilder    Abby      
##  4        1884 Zulu         Adamiss          Robbins   Addie     
##  5        1884 Zulu         Adamiss          Kilbon    Mary      
##  6        1884 Zulu         Adamiss          Goodenou Caroline  
##  7        1884 Zulu         Adamiss          Day       Laura     
##  8        1884 Zulu         Inanda           Richards  M.A.      
##  9        1884 Zulu         Inanda           Edwards   Mary      
## 10        1884 Zulu         Inanda           Price     Martha    
## #  with 1,055 more rows, and 11 more variables: title_in_report <chr>,
## #   MD <lgl>, DD <lgl>, LLD <lgl>, X10 <lgl>, X11 <lgl>, X12 <chr>,
## #   X13 <lgl>, X14 <chr>, X15 <lgl>, X16 <lgl>

abcfm_missionaries_native <- 
  abcfm_missionaries %>% 
  filter(title_in_report == "native pastor")

abcfm_missionaries_native

## # A tibble: 107 x 16
##    Report_year mission_name mission_station name_last name_first
##          <dbl> <chr>        <chr>            <chr>     <chr>     
##  1        1884 Zulu         Itafamasi        n/a       n/a       
##  2        1884 Zulu         Noodsberg        n/a       n/a       
##  3        1884 Zulu         Napumulo         n/a       n/a       
##  4        1884 Maratha      Bombay           Nathuji   Tukaram   
##  5        1884 Madura       Battalagundu     Davasaga M         
##  6        1884 Madura       Dindigul         Boiton    J         
##  7        1884 Madura       Dindigul         Clark     A         
##  8        1884 Madura       Madura           Rowland   A.G.      
##  9        1884 Madura       Madura           Cornelius J         
## 10        1884 Madura       Mandapasalai     Christian D         
## #  with 97 more rows, and 11 more variables: title_in_report <chr>,
## #   MD <lgl>, DD <lgl>, LLD <lgl>, X10 <lgl>, X11 <lgl>, X12 <chr>,
## #   X13 <lgl>, X14 <chr>, X15 <lgl>, X16 <lgl>
…
